{
    "auth": {
        "username": "harshatitti2",
        "access_key": "SqcjUMr4T9ZBP8Y2YNkf"
    },
    "browsers": [
        {
            "browser": "chrome",
            "os": "Windows 10",
            "versions": [
                "latest"
            ]
        },
        {
            "browser": "firefox",
            "os": "Windows 10",
            "versions": [
                "latest"
            ]
        },
        {
            "browser": "edge",
            "os": "Windows 10",
            "versions": [
                "latest"
            ]
        },
        {
            "browser": "chrome",
            "os": "OS X Mojave",
            "versions": [
                "latest"
            ]
        }
    ],
    "run_settings": {
        "cypress_config_file": "./cypress.json",
        "project_name": "cypress-native",
        "build_name": "build-no. 1",
        "exclude": [],
        "parallels": "3",
        "npm_dependencies": {
            "cypress": "^6.8.0",
            "cypress-iframe": "^1.0.1"
        },
        "package_config_options": {},
        "headless": true
    },
    "connection_settings": {
        "local": false,
        "local_identifier": null,
        "local_mode": null,
        "local_config_file": null
    },
    "disable_usage_reporting": false
}